Name,Network Size,Student Status Assortativity,Major Assortativity,Vertex Degree Assortativity,Dorm Assortativity,densite
American75,6386,0.28782116313911155,0.04584227592988082,0.06602249890210506,0.21906380800538072,0.01067634981671192
Amherst41,2235,0.4034107230365701,0.042037553944773626,0.058428389172124645,0.07481425548102764,0.036432678615418816
Auburn71,18448,0.19188583301598133,0.03970227754964254,0.001045749221791195,0.24042736612322696,0.005723706428641986
Baylor93,12803,0.3001054960040771,0.044172234844769925,0.07872980389930087,0.23150741077734033,0.008295306705316282
BC17,11509,0.5331807976868101,0.0400856429594828,0.07603316135214522,0.12056627340754658,0.00735346592032537
Berkeley13,22937,0.27458585010098285,0.05825502994601474,0.010313459088874384,0.1472764407599785,0.003240720373585438
Bingham82,10004,0.28566560558585763,0.04680298160715488,0.13736406472255802,0.16444205050113206,0.007252802168146038
Bowdoin47,2252,0.40502911762912347,0.05272493033944635,0.05620457454537117,0.10032165038531404,0.03329366936187035
Brandeis99,3898,0.3739665668785806,0.03997525544631663,-0.025515330213873477,0.17899209844438788,0.018112234049346348
Brown11,8600,0.42455744202161066,0.03912469612684111,0.06938877121976816,0.10272238407816026,0.010399424486892742
BU10,19700,0.4217995017387893,0.06794024300787875,0.04536583829567111,0.125745899151448,0.0032856314951182812
Bucknell39,3826,0.437004438163074,0.05068802524512606,0.09450740246934362,0.18117961395570054,0.021710962830854594
Cal65,11247,0.18783822430293196,0.10540018670257108,0.1916121889218266,0.21344296168865762,0.005555780353844946
Caltech36,769,0.24407936743342126,0.03471942372358318,-0.06527295119482344,0.3491531008726444,0.05640442132639792
Carnegie49,6637,0.31140884072376596,0.13165372912708742,0.12250686164779757,0.14017200449375108,0.011351009278813324
Colgate88,3482,0.4409103362420721,0.05220371082480271,0.0670008825165129,0.15031593379176325,0.025582876173123947
Columbia2,11770,0.4228002912622335,0.042998352836705535,-0.002178155110565995,0.12662993083730836,0.006415382259731783
Cornell5,18660,0.405676204703387,0.08763081689728056,0.018050046886142035,0.17552222321998795,0.004542385834053226
Dartmouth6,7694,0.4122022116147314,0.03903446259524427,0.04438445305323979,0.12223439633240994,0.010274583475685784
Duke14,9895,0.472066970924315,0.04205431811648266,0.0666733665375557,0.12995492575486298,0.0103459888563084
Emory27,7460,0.3939499136492069,0.03453280363292399,0.06632780311277527,0.17594209817998363,0.011861590456784848
FSU53,27737,0.22214903750070214,0.04276377876474231,0.09936155410737095,0.1857068635460625,0.002690196107222004
Georgetown15,9414,0.5187940365222197,0.041079292171341604,0.07542026374100695,0.12704415325481117,0.009606565248360016
GWU54,12193,0.35817720136089554,0.042821334901041515,0.02528731900779715,0.15603733269018502,0.006316928541891749
Hamilton46,2314,0.3464418209816554,0.03783187276512914,0.030593670854007295,0.10509474528958694,0.03601977623750019
Harvard1,15126,0.5426250622894172,0.04967692832862898,0.14505488767109062,0.12567663504955817,0.007208797068809329
Haverford76,1446,0.380880994739837,0.03444328988167116,0.06749211773411792,0.12501507074129053,0.05703743054458786
Howard90,4047,0.27962718528340236,0.04267554932236929,0.05788251760170491,0.11269101834435273,0.025021127798784452
Indiana69,29747,0.2951335355412875,0.04339123311907808,0.1329342627017534,0.2649724290428108,0.002951367374438888
JMU79,14070,0.3109844995559799,0.05286918963311421,0.002951501048267519,0.15673106358569272,0.0049059051684703725
Johns Hopkins55,5180,0.32521116673118183,0.06353066589182865,0.07980496716493633,0.1094139656825041,0.013910200162372396
Lehigh96,5075,0.3067075189254781,0.04255744757751177,0.03514352338363369,0.23144081638138456,0.015405263188553254
Maine59,9069,0.1573732340930138,0.05899993666678831,0.0731555232216038,0.1575974584276975,0.005915705902835892
Maryland58,20871,0.27331771145095285,0.05139728013103488,0.0014223562911621689,0.16127867734331042,0.0034201102595295438
Mich67,3748,0.22862773749288526,0.0749757649933128,0.1417370333774965,0.22541608877762678,0.011663973654911121
Michigan23,30147,0.34397818747197967,0.05904611585052325,0.115001515867186,0.1592355752885248,0.0025891310776623984
Middlebury45,3075,0.4096197667082307,0.04479537729853834,0.07848305830139068,0.147319123429139,0.02636537230694363
Mississippi66,10521,0.24396094718446149,0.039473064181127684,0.15067257618887125,0.21318095948736157,0.01103913845313176
MIT8,6440,0.315240859602468,0.058067301827022307,0.12005101145668985,0.17879641483565542,0.012118119495041378
MSU24,32375,0.28232286678060764,0.039424721378290555,0.009047464957528102,0.17311498973922565,0.0021348443731837815
MU78,15436,0.3231482053134477,0.04670094049532148,0.15846018864766934,0.23560581072167686,0.005451721280079055
Northeastern19,13882,0.27357727603212667,0.09708983846144985,0.06817059301790454,0.15133747674027956,0.00396410840654423
Northwestern25,10567,0.36216810374024166,0.08266001904656078,0.03444129080710951,0.19249029391903139,0.008747567709293077
Notre Dame57,12155,0.46316734965976447,0.04678821166940134,0.047713151929631256,0.20908741768057768,0.007328669162584891
NYU9,21679,0.34773094883185024,0.1056644354231659,0.01064385994935337,0.15744562131522247,0.0030458720636022296
Oberlin44,2920,0.23011231473520424,0.09350709613377944,0.05008017692087402,0.14980232456217782,0.021097486003369515
Oklahoma97,17425,0.19464267047628517,0.03637908876173665,0.073673257939209,0.28033524372883173,0.005879375468523767
Penn94,41554,0.24324861264934824,0.04912122542398639,-0.0013267112406892961,0.19983270141047485,0.00157784703408155
Pepperdine86,3445,0.3378494977435853,0.03374736745346906,0.05550950018031275,0.13296819774110663,0.025623663037376797
Princeton12,6596,0.4822395993165163,0.054390118871393854,0.09109212356796509,0.09467841955418972,0.013485784800308593
Reed98,962,0.2623369004087465,0.04211843774592218,0.0234339117662999,0.14559977311086097,0.04069738513026754
Rice31,4087,0.3575169385014553,0.04803348399456115,0.06486169828955639,0.4160174984372533,0.0221357764270772
Rochester38,4563,0.2732063716167712,0.06362608748567308,0.02495579380452334,0.19940151498188244,0.01550738393553623
Rutgers89,24580,0.25329603578359916,0.058147923400332896,0.07571150473377623,0.17018506142535617,0.0025973669995730544
Santa74,3578,0.3195960566253728,0.045128433270266326,0.07063364105479575,0.1391771122685546,0.023713236529326158
Simmons81,1518,0.31860884548376206,0.06128813449234577,-0.06196698100891072,0.16773118628478947,0.028650264069139997
Smith60,2970,0.26382611614364526,0.050211172531449855,0.04361720784999505,0.24251985865351586,0.02203079407525349
Stanford3,11621,0.35940581167711366,0.04866919314902132,0.10202555590066469,0.10151961624964567,0.00841745780125925
Swarthmore42,1659,0.34699394290845326,0.03975192583010515,0.060967135812287625,0.10282092471247326,0.04438995979818383
Syracuse56,13653,0.37370580598713865,0.07138001487761152,0.06454879873813181,0.23598215512538648,0.00583700620861262
Temple83,13686,0.19202358797725116,0.05658437042746409,0.030284112738161055,0.19761010075682683,0.00385273526904996
Tennessee95,16979,0.2254260267000189,0.03738593941938312,0.0005228069467338285,0.17004395788176893,0.0053467959779936736
Texas80,31560,0.2885624277396001,0.05971272783340577,0.16389241281404168,0.20483760433918657,0.0024490913693309305
Texas84,36371,0.20440875031020636,0.05219944983327741,-0.0015042037073028844,0.20201149658298373,0.0024049577307309594
Trinity100,2613,0.3782911525864028,0.0675034394502031,0.07190565373550935,0.10883910914751317,0.03281859052012877
Tufts18,6682,0.43216271711145315,0.041785118684086804,0.1180314941445345,0.12306561467752328,0.011187918438691146
Tulane29,7752,0.3880229960782519,0.046350365254908245,0.09760059754166493,0.2501295997750009,0.009450426783374535
UC33,16808,0.19482121191693585,0.03530744315036168,0.09392939417783251,0.21994123327561413,0.0036967198822752028
UC61,13746,0.1974393842227082,0.05616489799345555,0.19689194617654845,0.1463954986009367,0.004680606314945312
UC64,6833,0.16479416353625825,0.03905449958910147,0.1254897629641075,0.17449062925601233,0.006654748566589128
UChicago30,6591,0.3478631877313323,0.047648175193450826,0.018001995367138604,0.18427497373412455,0.009582340751136937
UCLA26,20467,0.2477766060610285,0.04516370448194337,0.136066540715862,0.19398865097258797,0.003569601051640806
UConn91,17212,0.24631695232384834,0.04604101345913931,0.08862091474478546,0.10843588732595687,0.004083707228134113
UCSB37,14935,0.2718847753389201,0.03974487820377196,0.18309255712150058,0.1779318437125371,0.0043241170647557205
UCSC68,8991,0.22683959708591767,0.047499094569862906,0.1323785514147945,0.38456528487616004,0.005557009240113924
UCSD34,14948,0.2363469786770082,0.03202633892569812,0.034355411587912985,0.24659323062467556,0.003967465886378056
UF21,35123,0.2617160396040709,0.04412537522297103,-0.009647878005893529,0.13233755460455518,0.0023762514171989813
UGA50,24389,0.3007504540694909,0.0318734350756891,0.08963118175599893,0.2533096818903059,0.003947744142889618
UIllinois20,30809,0.25731604690433646,0.050104296323272735,0.027852936470443016,0.21139338732242216,0.0026642991873797716
UMass92,16516,0.2758231984252129,0.0663089851334474,-0.001373584749494199,0.21846226350107184,0.0038083420350669417
UNC28,18163,0.29778306688690226,0.045913865966084356,6.8281457364715e-05,0.17710666947254836,0.004649013909773226
UPenn7,14916,0.4327459838452712,0.05109846204424467,0.09254132987479087,0.18009001649865253,0.006171568269177435
USC35,17444,0.27570154328528057,0.07957601765289556,0.005506089487337903,0.1774312035033433,0.005270568902362401
USF51,13377,0.11020028330029111,0.02857399749381867,0.14642411650579723,0.14136405416032902,0.0035903722128211926
USFCA72,2682,0.21112093153474942,0.0669534544180847,0.09189482945827006,0.1966928759699651,0.01814964921488832
UVA16,17196,0.3949935310514235,0.050501491529804494,0.02550214879707006,0.1722003343084891,0.005338927660976764
Vanderbilt48,8069,0.395933257094862,0.04977509991322627,0.03783265369348731,0.17594895627064283,0.013143700530863788
Vassar85,3068,0.4184823886642711,0.054487895872409424,0.10078144349335588,0.19516868272567203,0.02532765626773463
Vermont70,7324,0.3376098793838128,0.04820800387530525,0.07720492514508052,0.1986564534012908,0.007130635072174462
Villanova62,7772,0.46085880060278733,0.05069448097957243,0.06126868807106424,0.17631148494206905,0.010430753504872126
Virginia63,21325,0.2507334811652689,0.05129374456165091,-0.016074025770372716,0.11855193325265964,0.0030707074438853636
Wake73,5372,0.34675911178100977,0.03955821299599772,0.07093900243305198,0.17848766878645225,0.019352641589030637
WashU32,7755,0.40191500805920866,0.03857364603090448,0.04045640394806273,0.12865546789609558,0.012224417937323836
Wellesley22,2970,0.42148919501524285,0.037243412189846954,0.06425328627689912,0.10228736377950816,0.0215240991933481
Wesleyan43,3593,0.3941846029642573,0.04969504230753204,0.09508340407082097,0.11037457228852389,0.021390733156589434
William77,6472,0.32411574983077,0.040335612068968185,0.05160144749219251,0.15775664215561722,0.012720917647413897
Williams40,2790,0.46093161501947716,0.039075592803855246,0.04036915537628286,0.12054782457185409,0.02904035438762882
Wisconsin87,23842,0.2583052787117737,0.036376754971314706,-0.003539731627737389,0.2173363930810636,0.0029413329319098167
Yale4,8578,0.4587434480577875,0.047949713835888565,0.01863036885104288,0.22130565981210054,0.01102163053096858
